[
  [
    {
      "Answer": {
        "CurrentPos": {
          "X": 3,
          "Y": 2
        },
        "CurrentDirection": {
          "Name": "SOUTH",
          "Vector": {
            "X": 0,
            "Y": 1
          }          
        },
        "IsBreaker": false,
        "IsPrioritiesInverted": false,
        "IsLooped": false,
        "IsFinished": false
      },
      "Map": [
        [ "#", "#", "#", "#", "#", "#", "#", "#", "#", "#", "#", "#" ],
        [ "#", " ", " ", " ", " ", " ", " ", " ", " ", " ", " ", "#" ],
        [ "#", " ", " ", " ", " ", " ", " ", " ", " ", " ", " ", "#" ],
        [ "#", "$", "@", " ", "I", "B", "B", " ", " ", " ", " ", "#" ],
        [ "#", " ", " ", " ", " ", " ", " ", " ", " ", " ", " ", "#" ],
        [ "#", " ", " ", " ", " ", " ", " ", " ", " ", " ", " ", "#" ],
        [ "#", " ", " ", " ", " ", " ", " ", " ", " ", " ", " ", "#" ],
        [ "#", "I", " ", " ", " ", "S", "T", " ", " ", " ", " ", "#" ],
        [ "#", "X", " ", " ", " ", " ", " ", " ", " ", " ", " ", "#" ],
        [ "#", "X", " ", " ", " ", " ", " ", " ", " ", " ", "X", "#" ],
        [ "#", "X", " ", " ", " ", " ", " ", " ", "T", " ", "X", "#" ],
        [ "#", "X", " ", " ", " ", " ", " ", " ", " ", " ", "X", "#" ],
        [ "#", "X", " ", " ", " ", " ", " ", " ", " ", " ", "X", "#" ],
        [ "#", " ", " ", " ", " ", "W", " ", " ", " ", " ", " ", "#" ],
        [ "#", "#", "#", "#", "#", "#", "#", "#", "#", "#", "#", "#" ]
      ]
    }
  ],
  [
    {
     "Answer": {
        "CurrentPos": {
          "X": 9,
          "Y": 3
        },
        "CurrentDirection": {
          "Name": "SOUTH",
          "Vector": {
            "X": 0,
            "Y": 1
          }         
        },
        "IsBreaker": false,
        "IsPrioritiesInverted": false,
        "IsLooped": false,
        "IsFinished": false
      },
      "Map": [
        [ "#", "#", "#", "#", "#", "#", "#", "#", "#", "#", "#", "#" ],
        [ "#", " ", " ", " ", " ", " ", " ", " ", " ", " ", " ", "#" ],
        [ "#", " ", " ", " ", " ", " ", " ", " ", " ", " ", " ", "#" ],
        [ "#", " ", " ", "$", "I", "B", "B", " ", " ", " ", " ", "#" ],
        [ "#", " ", " ", " ", " ", " ", " ", " ", " ", " ", " ", "#" ],
        [ "#", " ", " ", " ", " ", " ", " ", " ", " ", " ", " ", "#" ],
        [ "#", " ", " ", " ", " ", " ", " ", " ", " ", " ", " ", "#" ],
        [ "#", "I", " ", " ", " ", "S", "T", " ", " ", " ", " ", "#" ],
        [ "#", "X", " ", " ", " ", " ", " ", " ", " ", " ", " ", "#" ],
        [ "#", "X", " ", "@", " ", " ", " ", " ", " ", " ", "X", "#" ],
        [ "#", "X", " ", " ", " ", " ", " ", " ", "T", " ", "X", "#" ],
        [ "#", "X", " ", " ", " ", " ", " ", " ", " ", " ", "X", "#" ],
        [ "#", "X", " ", " ", " ", " ", " ", " ", " ", " ", "X", "#" ],
        [ "#", " ", " ", " ", " ", "W", " ", " ", " ", " ", " ", "#" ],
        [ "#", "#", "#", "#", "#", "#", "#", "#", "#", "#", "#", "#" ]
      ]
    }
  ]
]
